current_odds
…
list.files(path = "sim", pattern = "*.rds") %>% 
  enframe(name = NULL, value = "filename") %>% 
  separate_wider_delim(filename, delim = "_", names_sep = ".", too_few = "align_start",
                       cols_remove = FALSE) %>% 
  mutate(league_name = ifelse(is.na(filename.5), 
                              str_c(filename.1, "_", filename.2),
                              str_c(filename.1, "_", filename.2, "_", filename.4))) %>% 
  rename(file_name = filename.filename) %>% 
  select(league_name, file_name) %>% 
  group_by(league_name) %>% 
  summarize(last_sim = last(file_name)) -> latest
latest

# A tibble: 133 × 2
   league_name                         last_sim                                 
   <chr>                               <chr>                                    
 1 alb_kategoria-superiore             alb_kategoria-superiore_2023-2024_2024-0…
 2 and_1a-divisio                      and_1a-divisio_2023-2024_2024-05-05 17:3…
 3 arg_primera-division                arg_primera-division_2023_2023-08-21 17:…
 4 arm_premier-league                  arm_premier-league_2023-2024_2024-05-04 …
 5 aus_a-league                        aus_a-league_2023-2024_2024-05-01 17:29:…
 6 aut_bundesliga                      aut_bundesliga_2023-2024_2024-03-10 18:2…
 7 aut_bundesliga_meistergruppe        aut_bundesliga_2023-2024_meistergruppe_2…
 8 aut_bundesliga_qualifikationsgruppe aut_bundesliga_2023-2024_qualifikationsg…
 9 aze_premyer-liqasi                  aze_premyer-liqasi_2023-2024_2024-05-06 …
10 bel_eerste-klasse-a                 bel_eerste-klasse-a_2023-2024_2024-03-17…
# ℹ 123 more rows
…
